com\mycompany\latihan_interface_caravan\Position.class
com\mycompany\latihan_interface_caravan\Movable.class
com\mycompany\latihan_interface_caravan\Latihan_interface_caravan.class
com\mycompany\latihan_interface_caravan\Caravan.class
com\mycompany\latihan_interface_caravan\Habitable.class
